{
    "layout": "splith",
    "type": "con",
    "nodes": [
        {
            "layout": "splitv",
            "percent": 0.5,
            "nodes": [
                {
                    "swallows": [
                        {
                            "class": "^URxvt$",
                            "instance": "^log_left_top$"
                        }
                    ]
                },
                {
                    "swallows": [
                        {
                            "class": "^URxvt$",
                            "instance": "^log_left_bot"
                        }
                    ]
                }
            ]
        },
        {
            "swallows": [
                {
                    "class": "^URxvt$",
                    "instance": "^log_right$"
                }
            ]
        }
    ]
}


